…
``` r
library(epidata)

# current verison
packageVersion("epidata")
```

    ## [1] '0.1.0'

``` r
get_black_white_wage_gap()
```

    ## # A tibble: 44 x 8
    ##     date white_median white_average black_median black_average gap_median gap_average gap_regression_based
    ##    <int>        <dbl>         <dbl>        <dbl>         <dbl>      <dbl>       <dbl>                <dbl>
    ##  1  1973        17.41         19.93        13.67         15.63      0.215       0.216                0.120
    ##  2  1974        16.94         19.46        13.51         15.38      0.203       0.210                0.107
    ##  3  1975        16.75         19.47        13.60         15.33      0.188       0.213                0.105
    ##  4  1976        16.94         19.63        13.62         15.94      0.196       0.188                0.089
    ##  5  1977        16.93         19.57        13.58         15.71      0.198       0.197                0.094
    ##  6  1978        16.93         19.68        13.55         15.92      0.200       0.191                0.092
    ##  7  1979        17.10         19.89        14.02         16.29      0.180       0.181                0.090
    ##  8  1980        16.79         19.47        13.67         15.93      0.185       0.182                0.092
    ##  9  1981        16.42         19.34        13.50         15.84      0.178       0.181                0.087
    ## 10  1982        16.68         19.51        13.34         15.65      0.200       0.198                0.103
    ## # ... with 34 more rows

``` r
get_underemployment()
```

    ## # A tibble: 325 x 2
    ##          date   all
    ##        <date> <dbl>
    ##  1 1989-12-01 0.093
    ##  2 1990-01-01 0.093
    ##  3 1990-02-01 0.093
    ##  4 1990-03-01 0.094
    ##  5 1990-04-01 0.094
    ##  6 1990-05-01 0.094
    ##  7 1990-06-01 0.094
    ##  8 1990-07-01 0.094
    ##  9 1990-08-01 0.095
    ## 10 1990-09-01 0.095
    ## # ... with 315 more rows

``` r
get_median_and_mean_wages("gr")
```

    ## # A tibble: 44 x 25
    ##     date median average men_median men_average women_median women_average white_median white_average black_median
    ##    <int>  <dbl>   <dbl>      <dbl>       <dbl>        <dbl>         <dbl>        <dbl>         <dbl>        <dbl>
    ##  1  1973  16.74   19.30      20.14       22.60        12.63         14.48        17.41         19.93        13.67
    ##  2  1974  16.37   18.91      19.88       22.17        12.54         14.22        16.94         19.46        13.51
    ##  3  1975  16.26   18.87      20.01       22.09        12.59         14.32        16.75         19.47        13.60
    ##  4  1976  16.36   19.11      19.65       22.33        12.72         14.71        16.94         19.63        13.62
    ##  5  1977  16.28   19.00      20.09       22.33        12.66         14.54        16.93         19.57        13.58
    ##  6  1978  16.57   19.07      20.29       22.46        12.72         14.62        16.93         19.68        13.55
    ##  7  1979  16.36   19.30      20.55       22.75        12.82         14.82        17.10         19.89        14.02
    ##  8  1980  16.28   18.89      20.24       22.28        12.76         14.65        16.79         19.47        13.67
    ##  9  1981  15.85   18.75      19.77       22.09        12.69         14.62        16.42         19.34        13.50
    ## 10  1982  15.95   18.89      19.54       22.24        12.76         14.87        16.68         19.51        13.34
    ## # ... with 34 more rows, and 15 more variables: black_average <dbl>, hispanic_median <dbl>, hispanic_average <dbl>,
    ## #   white_men_median <dbl>, white_men_average <dbl>, black_men_median <dbl>, black_men_average <dbl>,
    ## #   hispanic_men_median <dbl>, hispanic_men_average <dbl>, white_women_median <dbl>, white_women_average <dbl>,
    ## #   black_women_median <dbl>, black_women_average <dbl>, hispanic_women_median <dbl>, hispanic_women_average <dbl>
…
